<?xml version="1.0" encoding="UTF-8" standalone="no"?>
<svg id="svg2" xmlns:rdf="http://www.w3.org/1999/02/22-rdf-syntax-ns#" xmlns="http://www.w3.org/2000/svg" height="185" width="180" version="1.0" xmlns:cc="http://web.resource.org/cc/" xmlns:xlink="http://www.w3.org/1999/xlink" xmlns:dc="http://purl.org/dc/elements/1.1/">
 <metadata id="metadata1916">
  <rdf:RDF>
   <cc:Work rdf:about="">
    <dc:format>image/svg+xml</dc:format>
    <dc:type rdf:resource="http://purl.org/dc/dcmitype/StillImage"/>
   </cc:Work>
  </rdf:RDF>
 </metadata>
 <g id="g2073" fill="#b3b3b3" transform="translate(-11.198 .0000082821)">
  <path id="path2075" d="m175.05 82.236c6.73 47.804-23.67 91.834-67.91 98.064-44.258 6.24-85.558-27.56-92.258-75.47-6.68-47.894 23.7-91.894 67.9-98.094 44.198-6.2 85.198 27.6 92.198 75.5h0.07z"/>
  <path id="path2077" d="m159.04 84.506c5.37 38.334-18.96 73.434-54.36 78.434-35.348 4.99-68.398-22-73.798-60.4-5.3-38.304 19-73.504 54.4-78.504 35.398-4.9 68.398 22 73.758 60.5v-0.03z"/>
  <path id="path2079" d="m45.445 130.07l-13.229-6.43c-2.456-7.06-5.428-13.82-7.743-21.36-0.771-2.514 12.119 0.96 30.145 9.21 8.894 3.24 16.581 8.91 24.996 13.02 2.111-45.233 22.736-88.054 56.006-118.49 0.89-0.8719 3.58-2.548 5.07-3.1549 1.55-0.6333 2.58-0.6209 3.88 0.047 3.43 1.7524 9.59 6.8656 19.7 16.354 6.7 6.286 7.65 7.146 7.88 7.146-3.99 2.992-8.13 6.022-12.04 9.19-44.03 37.988-61.088 75.578-67.722 133.26-13.633-15.36-29.692-27.75-46.943-38.79z"/>
 </g>
 <g id="g2068">
  <path id="2" fill="#062" d="m175.05 82.236c6.73 47.804-23.67 91.834-67.91 98.064-44.258 6.24-85.558-27.56-92.258-75.47-6.68-47.894 23.7-91.894 67.9-98.094 44.198-6.2 85.198 27.6 92.198 75.5h0.07z"/>
  <path id="3" fill="#ded" d="m159.04 84.506c5.37 38.334-18.96 73.434-54.36 78.434-35.348 4.99-68.398-22-73.798-60.4-5.3-38.304 19-73.504 54.4-78.504 35.398-4.9 68.398 22 73.758 60.5v-0.03z"/>
  <path id="use4546" d="m45.445 130.07l-13.229-6.43c-2.456-7.06-5.428-13.82-7.743-21.36-0.771-2.514 12.119 0.96 30.145 9.21 8.894 3.24 16.581 8.91 24.996 13.02 2.111-45.233 22.736-88.054 56.006-118.49 0.89-0.8719 3.58-2.548 5.07-3.1549 1.55-0.6333 2.58-0.6209 3.88 0.047 3.43 1.7524 9.59 6.8656 19.7 16.354 6.7 6.286 7.65 7.146 7.88 7.146-3.99 2.992-8.13 6.022-12.04 9.19-44.03 37.988-61.088 75.578-67.722 133.26-13.633-15.36-29.692-27.75-46.943-38.79z" fill="#062"/>
 </g>
</svg>
