%!PS-Adobe-3.0 EPSF-3.0
%%Creator: cairo 1.13.1 (http://cairographics.org)
%%CreationDate: Mon Jun 30 23:05:41 2014
%%Pages: 1
%%DocumentData: Clean7Bit
%%LanguageLevel: 2
%%BoundingBox: 0 -1 139 143
%%EndComments
%%BeginProlog
save
50 dict begin
/q { gsave } bind def
/Q { grestore } bind def
/cm { 6 array astore concat } bind def
/w { setlinewidth } bind def
/J { setlinecap } bind def
/j { setlinejoin } bind def
/M { setmiterlimit } bind def
/d { setdash } bind def
/m { moveto } bind def
/l { lineto } bind def
/c { curveto } bind def
/h { closepath } bind def
/re { exch dup neg 3 1 roll 5 3 roll moveto 0 rlineto
      0 exch rlineto 0 rlineto closepath } bind def
/S { stroke } bind def
/f { fill } bind def
/f* { eofill } bind def
/n { newpath } bind def
/W { clip } bind def
/W* { eoclip } bind def
/BT { } bind def
/ET { } bind def
/pdfmark where { pop globaldict /?pdfmark /exec load put }
    { globaldict begin /?pdfmark /pop load def /pdfmark
    /cleartomark load def end } ifelse
/BDC { mark 3 1 roll /BDC pdfmark } bind def
/EMC { mark /EMC pdfmark } bind def
/cairo_store_point { /cairo_point_y exch def /cairo_point_x exch def } def
/Tj { show currentpoint cairo_store_point } bind def
/TJ {
  {
    dup
    type /stringtype eq
    { show } { -0.001 mul 0 cairo_font_matrix dtransform rmoveto } ifelse
  } forall
  currentpoint cairo_store_point
} bind def
/cairo_selectfont { cairo_font_matrix aload pop pop pop 0 0 6 array astore
    cairo_font exch selectfont cairo_point_x cairo_point_y moveto } bind def
/Tf { pop /cairo_font exch def /cairo_font_matrix where
      { pop cairo_selectfont } if } bind def
/Td { matrix translate cairo_font_matrix matrix concatmatrix dup
      /cairo_font_matrix exch def dup 4 get exch 5 get cairo_store_point
      /cairo_font where { pop cairo_selectfont } if } bind def
/Tm { 2 copy 8 2 roll 6 array astore /cairo_font_matrix exch def
      cairo_store_point /cairo_font where { pop cairo_selectfont } if } bind def
/g { setgray } bind def
/rg { setrgbcolor } bind def
/d1 { setcachedevice } bind def
%%EndProlog
%%BeginSetup
%%EndSetup
%%Page: 1 1
%%BeginPageSetup
%%PageBoundingBox: 0 -1 139 143
%%EndPageSetup
q 0 -1 139 144 rectclip q
0.701961 g
128.871 79.046 m 134.254 40.8 109.934 5.577 74.543 0.593 c 39.137 -4.399
 6.098 22.64 0.738 60.968 c -4.605 99.284 19.695 134.484 55.059 139.445 
c 90.414 144.406 123.215 117.367 128.816 79.046 c h
128.871 79.046 m f
116.062 77.23 m 120.359 46.562 100.895 18.48 72.574 14.48 c 44.297 10.492
 17.855 32.081 13.535 62.8 c 9.297 93.445 28.738 121.605 57.059 125.605 
c 85.375 129.527 111.773 108.003 116.062 77.206 c h
116.062 77.23 m f
25.188 40.777 m 14.605 45.921 l 12.641 51.57 10.262 56.976 8.41 63.011 
c 7.793 65.023 18.105 62.242 32.527 55.64 c 39.641 53.05 45.789 48.515 52.523
 45.226 c 54.211 81.413 70.711 115.667 97.328 140.019 c 98.039 140.714 100.191
 142.058 101.383 142.542 c 102.625 143.05 103.445 143.038 104.488 142.503
 c 107.23 141.101 112.16 137.011 120.246 129.421 c 125.605 124.394 126.367
 123.702 126.551 123.702 c 123.359 121.312 120.047 118.886 116.918 116.351
 c 81.695 85.96 68.047 55.89 62.742 9.745 c 51.836 22.031 38.988 31.945 
25.188 40.777 c h
25.188 40.777 m f
0 0.4 0.133333 rg
137.828 79.046 m 143.215 40.8 118.895 5.577 83.5 0.593 c 48.094 -4.399 
15.055 22.64 9.695 60.968 c 4.352 99.284 28.656 134.484 64.016 139.445 c
 99.375 144.406 132.172 117.367 137.773 79.046 c h
137.828 79.046 m f
0.866667 0.933333 0.866667 rg
125.02 77.23 m 129.316 46.562 109.852 18.48 81.535 14.48 c 53.254 10.492
 26.816 32.081 22.496 62.8 c 18.254 93.445 37.695 121.605 66.016 125.605
 c 94.332 129.527 120.734 108.003 125.02 77.206 c h
125.02 77.23 m f
0 0.4 0.133333 rg
34.145 40.777 m 23.562 45.921 l 21.598 51.57 19.219 56.976 17.367 63.011
 c 16.75 65.023 27.062 62.242 41.484 55.64 c 48.598 53.05 54.75 48.515 61.48
 45.226 c 63.168 81.413 79.668 115.667 106.285 140.019 c 106.996 140.714
 109.148 142.058 110.34 142.542 c 111.582 143.05 112.406 143.038 113.445
 142.503 c 116.191 141.101 121.117 137.011 129.207 129.421 c 134.566 124.394
 135.324 123.702 135.508 123.702 c 132.316 121.312 129.004 118.886 125.879
 116.351 c 90.652 85.96 77.008 55.89 71.699 9.745 c 60.793 22.031 47.945
 31.945 34.145 40.777 c h
34.145 40.777 m f
Q Q
showpage
%%Trailer
end restore
%%EOF
